Verilator/tran/waveform.vcd
$version Generated by VerilatedVcd $end
$date Mon Apr  1 16:09:39 2024
 $end
$timescale   1ps $end

 $scope module TOP $end
  $var wire  6 + a_in [5:0] $end
  $var wire  6 , b_in [5:0] $end
  $var wire  1 ( clk $end
  $var wire  1 - in_valid $end
  $var wire  2 * op_in [1:0] $end
  $var wire  6 . out [5:0] $end
  $var wire  1 / out_valid $end
  $var wire  1 ) rst $end
  $scope module alu $end
   $var wire 32 0 WIDTH [31:0] $end
   $var wire  6 + a_in [5:0] $end
   $var wire  6 $ a_in_r [5:0] $end
   $var wire  6 , b_in [5:0] $end
   $var wire  6 % b_in_r [5:0] $end
   $var wire  1 ( clk $end
   $var wire  1 - in_valid $end
   $var wire  1 & in_valid_r $end
   $var wire  2 * op_in [1:0] $end
   $var wire  2 # op_in_r [1:0] $end
   $var wire  6 . out [5:0] $end
   $var wire  1 / out_valid $end
   $var wire  6 ' result [5:0] $end
   $var wire  1 ) rst $end
  $upscope $end
 $upscope $end
$enddefinitions $end


#0
b01 #
b111000 $
b101001 %
0&
b000000 '
0(
0)
b10 *
b010001 +
b001011 ,
0-
b110011 .
1/
b00000000000000000000000000000110 0
#1
b10 #
b010001 $
b001011 %
1(
b000000 .
0/
#2
0(
#3
b00 #
b000000 $
b000000 %
1(
1)
b00 *
b000000 +
b000000 ,
#4
0(
#5
1(
#6
0(
0)
#7
1(
#8
0(
#9
1(
#10
0(
#11
1(
#12
0(
#13
1(
#14
0(
#15
1(
#16
0(
#17
1(
b01 *
b001111 +
b000100 ,
1-
#18
0(
#19
b01 #
b001111 $
b000100 %
1&
b010011 '
1(
0-
#20
0(
#21
0&
b000000 '
1(
b010011 .
1/
#22
0(
#23
1(
b000000 .
0/
#24
0(
#25
1(
#26
0(
#27
1(
b010100 +
b000000 ,
1-
#28
0(
#29
b010100 $
b000000 %
1&
b010100 '
1(
0-
#30
0(
#31
0&
b000000 '
1(
b010100 .
1/
#32
0(
#33
1(
b000000 .
0/
#34
0(
#35
1(
#36
0(
#37
1(
#38
0(
#39
1(
#40
0(
#41
1(
#42
0(
#43
1(
#44
0(
#45
1(
#46
0(
#47
1(
b10 *
b001101 +
b000100 ,
1-
#48
0(
#49
b10 #
b001101 $
b000100 %
1&
b001001 '
1(
0-
#50
0(
#51
0&
b000000 '
1(
b001001 .
1/
#52
0(
#53
1(
b000000 .
0/
#54
0(
#55
1(
#56
0(
#57
1(
b010000 +
b000000 ,
1-
#58
0(
#59
b010000 $
b000000 %
1&
b010000 '
1(
0-
#60
0(
#61
0&
b000000 '
1(
b010000 .
1/
#62
0(
#63
1(
b01 *
b001011 +
b000100 ,
1-
b000000 .
0/
#64
0(
#65
b01 #
b001011 $
b000100 %
1&
b001111 '
1(
0-
#66
0(
#67
0&
b000000 '
1(
b001111 .
1/
#68
0(
#69
1(
b000000 .
0/
#70
0(
#71
1(
b010011 +
b000010 ,
1-
#72
0(
#73
b010011 $
b000010 %
1&
b010101 '
1(
0-
#74
0(
#75
0&
b000000 '
1(
b010101 .
1/
#76
0(
#77
1(
b10 *
b001110 +
b000001 ,
1-
b000000 .
0/
#78
0(
#79
b10 #
b001110 $
b000001 %
1&
b001101 '
1(
0-
#80
0(
#81
0&
b000000 '
1(
b001101 .
1/
#82
0(
#83
1(
b000000 .
0/
#84
0(
#85
1(
#86
0(
#87
1(
#88
0(
#89
1(
#90
0(
#91
1(
#92
0(
#93
1(
#94
0(
#95
1(
#96
0(
#97
1(
#98
0(
#99
1(
#100
0(
#101
1(
#102
0(
#103
1(
b001101 +
b000000 ,
1-
#104
0(
#105
b001101 $
b000000 %
1&
b001101 '
1(
0-
#106
0(
#107
0&
b000000 '
1(
b001101 .
1/
#108
0(
#109
1(
b01 *
b000010 ,
1-
b000000 .
0/
#110
0(
#111
b01 #
b000010 %
1&
b001111 '
1(
0-
#112
0(
#113
0&
b000000 '
1(
b001111 .
1/
#114
0(
#115
1(
b000000 .
0/
#116
0(
#117
1(
#118
0(
#119
1(
#120
0(
#121
1(
#122
0(
#123
1(
#124
0(
#125
1(
#126
0(
#127
1(
#128
0(
#129
1(
b10 *
b001010 +
b000100 ,
1-
#130
0(
#131
b10 #
b001010 $
b000100 %
1&
b000110 '
1(
0-
#132
0(
#133
0&
b000000 '
1(
b000110 .
1/
#134
0(
#135
1(
b000000 .
0/
#136
0(
#137
1(
b01 *
b000101 ,
1-
#138
0(
#139
b01 #
b000101 %
1&
b001111 '
1(
0-
#140
0(
#141
0&
b000000 '
1(
b001111 .
1/
#142
0(
#143
1(
b000000 .
0/
#144
0(
#145
1(
#146
0(
#147
1(
#148
0(
#149
1(
#150
0(
#151
1(
#152
0(
#153
1(
#154
0(
#155
1(
#156
0(
#157
1(
#158
0(
#159
1(
#160
0(
#161
1(
#162
0(
#163
1(
#164
0(
#165
1(
#166
0(
#167
1(
#168
0(
#169
1(
#170
0(
#171
1(
#172
0(
#173
1(
#174
0(
#175
1(
#176
0(
#177
1(
#178
0(
#179
1(
#180
0(
#181
1(
#182
0(
#183
1(
b001101 +
b000100 ,
1-
#184
0(
#185
b001101 $
b000100 %
1&
b010001 '
1(
0-
#186
0(
#187
0&
b000000 '
1(
b10 *
b010011 +
1-
b010001 .
1/
#188
0(
#189
b10 #
b010011 $
1&
b001111 '
1(
0-
b000000 .
0/
#190
0(
#191
0&
b000000 '
1(
b001111 .
1/
#192
0(
#193
1(
b000000 .
0/
#194
0(
#195
1(
#196
0(
#197
1(
#198
0(
#199
1(
#200
0(
#201
1(
#202
0(
#203
1(
#204
0(
#205
1(
#206
0(
#207
1(
#208
0(
#209
1(
#210
0(
#211
1(
#212
0(
#213
1(
#214
0(
#215
1(
#216
0(
#217
1(
b01 *
b000001 ,
1-
#218
0(
#219
b01 #
b000001 %
1&
b010100 '
1(
0-
#220
0(
#221
0&
b000000 '
1(
b10 *
b001110 +
b000100 ,
1-
b010100 .
1/
#222
0(
#223
b10 #
b001110 $
b000100 %
1&
b001010 '
1(
0-
b000000 .
0/
#224
0(
#225
0&
b000000 '
1(
b01 *
b001111 +
b000011 ,
1-
b001010 .
1/
#226
0(
#227
b01 #
b001111 $
b000011 %
1&
b010010 '
1(
0-
b000000 .
0/
#228
0(
#229
0&
b000000 '
1(
b010010 .
1/
#230
0(
#231
1(
b000000 .
0/
#232
0(
#233
1(
#234
0(
#235
1(
#236
0(
#237
1(
#238
0(
#239
1(
#240
0(
#241
1(
#242
0(
#243
1(
b010000 +
b000100 ,
1-
#244
0(
#245
b010000 $
b000100 %
1&
b010100 '
1(
0-
#246
0(
#247
0&
b000000 '
1(
b010100 .
1/
#248
0(
#249
1(
b10 *
b010100 +
b000001 ,
1-
b000000 .
0/
#250
0(
#251
b10 #
b010100 $
b000001 %
1&
b010011 '
1(
0-
#252
0(
#253
0&
b000000 '
1(
b010011 .
1/
#254
0(
#255
1(
b000000 .
0/
#256
0(
#257
1(
#258
0(
#259
1(
#260
0(
#261
1(
#262
0(
#263
1(
#264
0(
#265
1(
#266
0(
#267
1(
#268
0(
#269
1(
#270
0(
#271
1(
#272
0(
#273
1(
b001111 +
1-
#274
0(
#275
b001111 $
1&
b001110 '
1(
0-
#276
0(
#277
0&
b000000 '
1(
b001110 .
1/
#278
0(
#279
1(
b000000 .
0/
#280
0(
#281
1(
#282
0(
#283
1(
#284
0(
#285
1(
#286
0(
#287
1(
#288
0(
#289
1(
#290
0(
#291
1(
#292
0(
#293
1(
b01 *
b010100 +
1-
#294
0(
#295
b01 #
b010100 $
1&
b010101 '
1(
0-
#296
0(
#297
0&
b000000 '
1(
b010101 .
1/
#298
0(
#299
1(
b000000 .
0/
