Verilator/trad/waveform.vcd
$version Generated by VerilatedVcd $end
$date Mon Apr  1 12:46:11 2024
 $end
$timescale   1ps $end

 $scope module TOP $end
  $var wire  6 + a_in [5:0] $end
  $var wire  6 , b_in [5:0] $end
  $var wire  1 ( clk $end
  $var wire  1 - in_valid $end
  $var wire  2 * op_in [1:0] $end
  $var wire  6 . out [5:0] $end
  $var wire  1 / out_valid $end
  $var wire  1 ) rst $end
  $scope module alu $end
   $var wire 32 0 WIDTH [31:0] $end
   $var wire  6 + a_in [5:0] $end
   $var wire  6 $ a_in_r [5:0] $end
   $var wire  6 , b_in [5:0] $end
   $var wire  6 % b_in_r [5:0] $end
   $var wire  1 ( clk $end
   $var wire  1 - in_valid $end
   $var wire  1 & in_valid_r $end
   $var wire  2 * op_in [1:0] $end
   $var wire  2 # op_in_r [1:0] $end
   $var wire  6 . out [5:0] $end
   $var wire  1 / out_valid $end
   $var wire  6 ' result [5:0] $end
   $var wire  1 ) rst $end
  $upscope $end
 $upscope $end
$enddefinitions $end


#0
b01 #
b111000 $
b101001 %
0&
b000000 '
0(
0)
b10 *
b010001 +
b001011 ,
0-
b110011 .
1/
b00000000000000000000000000000110 0
#1
b10 #
b010001 $
b001011 %
1(
b000000 .
0/
#2
0(
#3
b00 #
b000000 $
b000000 %
1(
1)
b00 *
b000000 +
b000000 ,
#4
0(
#5
1(
#6
0(
0)
#7
1(
#8
0(
#9
1(
#10
0(
#11
1(
#12
0(
#13
1(
#14
0(
#15
1(
#16
0(
#17
1(
#18
0(
#19
1(
b01 *
b000101 +
b000011 ,
1-
#20
0(
#21
b01 #
b000101 $
b000011 %
1&
b001000 '
1(
0-
#22
0(
#23
0&
b000000 '
1(
b001000 .
1/
#24
0(
#25
1(
b000000 .
0/
#26
0(
#27
1(
#28
0(
#29
1(
#30
0(
#31
1(
#32
0(
#33
1(
#34
0(
#35
1(
#36
0(
#37
1(
#38
0(
#39
1(
b10 *
1-
#40
0(
#41
b10 #
1&
b000010 '
1(
0-
#42
0(
#43
0&
b000000 '
1(
b000010 .
1/
#44
0(
#45
1(
b000000 .
0/
